…
``` r
histo <- activity %>%
                group_by(date) %>%
                        summarize(total_o = sum(steps, na.rm = TRUE)) 
# total_o represents total steps from original datasets
histo
```

```
## # A tibble: 61 × 2
##    date       total_o
##    <chr>        <int>
##  1 2012-10-01       0
##  2 2012-10-02     126
##  3 2012-10-03   11352
##  4 2012-10-04   12116
##  5 2012-10-05   13294
##  6 2012-10-06   15420
##  7 2012-10-07   11015
##  8 2012-10-08       0
##  9 2012-10-09   12811
## 10 2012-10-10    9900
## # ℹ 51 more rows
```
…
``` r
histo
```

```
## # A tibble: 61 × 2
##    date       total_o
##    <chr>        <int>
##  1 2012-10-01       0
##  2 2012-10-02     126
##  3 2012-10-03   11352
##  4 2012-10-04   12116
##  5 2012-10-05   13294
##  6 2012-10-06   15420
##  7 2012-10-07   11015
##  8 2012-10-08       0
##  9 2012-10-09   12811
## 10 2012-10-10    9900
## # ℹ 51 more rows
```
…
## What is the average daily activity pattern?
### Calculate the average steps in each 5 min time interval over Oct and Nov 2012

``` r
avg_steps <- activity %>%
                group_by(interval) %>%
                summarize(mean = mean(steps, na.rm = TRUE))
avg_steps
```

```
## # A tibble: 288 × 2
##    interval   mean
##       <int>  <dbl>
##  1        0 1.72  
##  2        5 0.340 
##  3       10 0.132 
##  4       15 0.151 
##  5       20 0.0755
##  6       25 2.09  
##  7       30 0.528 
##  8       35 0.868 
##  9       40 0     
## 10       45 1.47  
## # ℹ 278 more rows
```
…
``` r
histo_i <- activity_impute %>%
                group_by(date) %>%
                        summarize(total_i = sum(steps_imputed, na.rm = TRUE)) 
# total_i refers to total steps calculated using imputed dataset
histo_i
```

```
## # A tibble: 61 × 2
##    date       total_i
##    <chr>        <dbl>
##  1 2012-10-01  10766.
##  2 2012-10-02    126 
##  3 2012-10-03  11352 
##  4 2012-10-04  12116 
##  5 2012-10-05  13294 
##  6 2012-10-06  15420 
##  7 2012-10-07  11015 
##  8 2012-10-08  10766.
##  9 2012-10-09  12811 
## 10 2012-10-10   9900 
## # ℹ 51 more rows
```
…
``` r
histo_i
```

```
## # A tibble: 61 × 2
##    date       total_i
##    <chr>        <dbl>
##  1 2012-10-01  10766.
##  2 2012-10-02    126 
##  3 2012-10-03  11352 
##  4 2012-10-04  12116 
##  5 2012-10-05  13294 
##  6 2012-10-06  15420 
##  7 2012-10-07  11015 
##  8 2012-10-08  10766.
##  9 2012-10-09  12811 
## 10 2012-10-10   9900 
## # ℹ 51 more rows
```
…
